{
  "questions": [
    {
      "question": "Which version is Flutter stable currently?",
      "possibleAnswers": [
        "3.0.5",
        "2.1.4",
        "3.3.0",
        "3.1.0"
      ],
      "answer": "3.3.0"
    }
  ]
}